{
  "categoryDetails": [
    {
      "sequence": "0",
      "description": "通訊產品",
      "categoryId": "101"
    },
    {
      "sequence": "51",
      "description": "攝錄器材",
      "categoryId": "105"
    },
    {
      "sequence": "63",
      "description": "電腦產品",
      "categoryId": "103"
    },
    {
      "sequence": "65",
      "description": "影音產品",
      "categoryId": "104"
    },
    {
      "sequence": "66",
      "description": "大型家庭電器",
      "categoryId": "299"
    },
    {
      "sequence": "67",
      "description": "小型家庭電器",
      "categoryId": "306"
    },
    {
      "sequence": "68",
      "description": "美容產品",
      "categoryId": "519"
    },
    {
      "sequence": "69",
      "description": "手錶",
      "categoryId": "270"
    },
    {
      "sequence": "70",
      "description": "母嬰產品",
      "categoryId": "481"
    }
  ],
  "tokenId": "xxx",
  "transactionId": "1112"
}