{
	"transactionId": "",
	"tokenId": "xxx",
	"shopNo": "4399",
	"districtId": "CWB",
	"shopUrl": "https://www.broadway.com.hk/sites/default/files/images/shops/img_shop_14.jpg",
	"address": "時代廣場915號舖",
	"phoneNo": "(852) 25061330",
	"openingHour": "11:00AM-10:00PM (星期一至日)",
	"openingHourSec": "11:00AM-10:00PM (星期一至日)",
	"mtrExit": "銅鑼灣 (A 出口)",
	"mapLatitude": "22.278355",
	"mapLongitude": "114.181413"
}

